{
  "name": "Historia de México I",
  "image": "portada.jpg",
  "temas": [
    {
      "tema": "Introducción",
      "subtemas": [     
        {
          "tema": "Bloque V",
          "url": "index.html"
        },
        {
          "tema": "Transversalidad de los aprendizajes",
          "url": "aprendizajes.html"
        },
        {
          "tema": "Integración",
          "url": "integracion.html"
        },
        {
          "tema": "Mis intereses",
          "url": "mis_intereses.html"
        },
        {
          "tema": "Evaluación diagnóstica",
          "url": "mi_entorno_evaluacion_diagnostica.html"
        }
      ]
    },
    {
      "tema": "Causas internas y externas que dan origen al proceso de Independencia",
      "subtemas": [
        {
          "tema": "Causas internas y externas que dan origen al proceso de Independencia",
          "url": "tema1.0.0.html"
        },
        {
          "tema": "Causas externas",
          "url": "tema1.1.0.html"
        },
        {
          "tema": "Causas internas",
          "url": "tema1.2.0.html"
        },
        {
          "tema": "Actividad 1",
          "url": "tema1.2.0A1.html"
        }

      ]
    },
    {
      "tema": "Etapas de la guerra de Independencia",
      "subtemas": [
        {
          "tema": "Inicio (primera etapa)",
          "url": "tema2.0.0.html"
        },
        {
          "tema": "Organización (segunda etapa)",
          "url": "tema2.1.0.html"
        },
        {
          "tema": "Evaluación formativa",
          "url": "tema2.1.0_evaluacion_formativa.html"
        },
        {
          "tema": "Fomento a la lectura",
          "url": "tema2.1.0_lectura.html"
        },
        {
          "tema": "Oriéntate",
          "url": "tema2.1.0_orientate.html"
        },
        {
          "tema": "Resistencia (tercera etapa)",
          "url": "tema2.2.0.html"
        },
        {
          "tema": "Actividad transversal",
          "url": "tema2.2.0_actividad_transversal.html"
        },
        {
          "tema": "Consumación de Independencia (cuarta etapa)",
          "url": "tema2.3.0.html"
        },
        {
          "tema": "Integración",
          "url": "tema2.3.0_integracion.html"
        },
        {
          "tema": "Actividad DHS",
          "url": "tema2.3.1_dhs.html"
        },
        {
          "tema": "PROMOVER LA IGUALDAD DE GÉNERO Y EL EMPODERAMIENTO DE LA MUJER",
          "url": "tema2.3.2.html"
        },
        {
          "tema": "Integración",
          "url": "tema2.3.2_integracion.html"
        },
        {
          "tema": "Registro de competencias",
          "url": "tema2.3.2_registro_de_competencias.html"
        },
        {
          "tema": "Evaluación sumativa",
          "url": "tema2.3.2_sumativa.html"
        },
        {
          "tema": "Prueba tipo PLANEA",
          "url": "tema2.3.3_prueba_planea.html"
        },
        {
          "tema": "Portafolio de evidencias Bloque II",
          "url": "tema2.3.4_portafolio_bloque2.html"
        },
        {
          "tema": "Bibliografía",
          "url": "bibliografia.html"
        }

      ]
    }  
  ]
}
