{
  "name": "Historia de México I",
  "image": "portada.jpg",
  "temas": [
    {
      "tema": "Introducción",
      "subtemas": [     
        {
          "tema": "Bloque II",
          "url": "index.html"
        },
        {
          "tema": "Transversalidad de los aprendizajes",
          "url": "aprendizajes.html"
        },
        {
          "tema": "Integración",
          "url": "integracion.html"
        },
        {
          "tema": "Mis intereses",
          "url": "mis_intereses.html"
        },
        {
          "tema": "Evaluación diagnóstica",
          "url": "mi_entorno_evaluacion_diagnostica.html"
        }
      ]
    },
    {
      "tema": "La llegada del ser humano a través de rutas migratorias",
      "subtemas": [
        {
          "tema": "El contexto",
          "url": "tema1.0.0.html"
        },
        {
          "tema": "Estrecho de Bering",
          "url": "tema1.1.0.html"
        },
        {
          "tema": "Polinesiaaustraliana",
          "url": "tema1.2.0.html"
        },
        {
          "tema": "Actividad transversal",
          "url": "tema1.2.0_actividad_transversal.html"
        },
        {
          "tema": "Las teorías no científicas",
          "url": "tema1.3.0.html"
        },
        {
          "tema": "Fomento a la lectura",
          "url": "tema1.3.0_lectura.html"
        },
        {
          "tema": "Actividad 1",
          "url": "tema1.3.0A1.html"
        },
        {
          "tema": "Evaluación formativa",
          "url": "tema1.3.0A1_evaluacion_formativa.html"
        }

      ]
    },
    {
      "tema": "La etapa lítica y el protoneolítico",
      "subtemas": [
        {
          "tema": "Periodo lítico",
          "url": "tema2.0.0.html"
        },
        {
          "tema": "Periodo arqueolítico",
          "url": "tema2.1.0.html"
        },
        {
          "tema": "Periodo cenolítico",
          "url": "tema2.2.0.html"
        },
        {
          "tema": "Periodo protoneolítico",
          "url": "tema2.3.0.html"
        },
        {
          "tema": "Actividad 2",
          "url": "tema2.3.0A2.html"
        }

      ]
    },
    {
      "tema": "Las áreas geográfico-culturales",
      "subtemas": [
        {
          "tema": "Oasisamérica",
          "url": "tema3.0.0.html"
        },
        {
          "tema": "Aridoamérica",
          "url": "tema3.1.0.html"
        },
        {
          "tema": "Mesoamérica",
          "url": "tema3.2.0.html"
        },
        {
          "tema": "Actividad 3",
          "url": "tema3.2.0A3.html"
        }

      ]
    },
    {
      "tema": "Horizontes culturales de Mesoamérica",
      "subtemas": [
        {
          "tema": "Horizontes culturales de Mesoamérica",
          "url": "tema4.0.0.html"
        },
        {
          "tema": "Integración",
          "url": "tema4.0.0_integracion.html"
        },
        {
          "tema": "Contexto histórico",
          "url": "tema4.1.0.html"
        },
        {
          "tema": "Actividad 4",
          "url": "tema4.1.0A4.html"
        },
        {
          "tema": "Teotihuacanos",
          "url": "tema4.2.0.html"
        },
        {
          "tema": "Oriéntate",
          "url": "tema4.2.0_orientate.html"
        },
        {
          "tema": "Toltecas",
          "url": "tema4.3.0.html"
        },
        {
          "tema": "Actividad 5",
          "url": "tema4.3.0A5.html"
        },
        {
          "tema": "Mexicas, aztecas o nahuas",
          "url": "tema4.4.0.html"
        },
        {
          "tema": "Actividad 6",
          "url": "tema4.4.0A6.html"
        },
        {
          "tema": "Actividad DHS",
          "url": "tema4.4.0A6_dhs.html"
        },
        {
          "tema": "Integración",
          "url": "tema4.4.0A6_integracion.html"
        },
        {
          "tema": "Registro de competencias",
          "url": "tema4.4.0A6_registro_de_competencias.html"
        },
        {
          "tema": "Evaluación sumativa",
          "url": "tema4.4.0A6_sumativa.html"
        },
        {
          "tema": "Prueba tipo PLANEA",
          "url": "tema4.4.0A7_prueba_planea.html"
        }

      ]
    }  
  ]
}
